[
    {
        "id": "04EB2F2EA8388E6497CBE6173A9CA4A01CA10521E197D3B0DDFDC39E1870759F",
        "repositoryName": "my-repo",
        "repositoryDisplayName": "my-repo",
        "repositoryType": "git",
        "reviewedBranch": "FOO-1",
        "baseBranch": "master",
        "autoUpdate": true,
        "lastChangesetId": "537324fdeb1172807cc566c16a5111e7afcda7bb"
    },
    {
        "id": "04EB2F2EA8388E6497CBE6173A9CA4A01CA10521E197D3B0DDFDC39E1870759F",
        "repositoryName": "my-repo",
        "repositoryDisplayName": "my-repo",
        "repositoryType": "git",
        "reviewedBranch": "FOO-2",
        "baseBranch": "master",
        "autoUpdate": true,
        "lastChangesetId": "537324fdeb1172807cc566c16a5111e7afcda7bb"
    },
    {
        "id": "04EB2F2EA8388E6497CBE6173A9CA4A01CA10521E197D3B0DDFDC39E1870759F",
        "repositoryName": "my-repo",
        "repositoryDisplayName": "my-repo",
        "repositoryType": "git",
        "reviewedBranch": "FOO-3",
        "baseBranch": "SOF-10",
        "autoUpdate": true,
        "lastChangesetId": "537324fdeb1172807cc566c16a5111e7afcda7bb"
    }
]